sp_pair,ord,mean,low,sup
EA-DA,Pianka,0.13,0.02,0.36
EN-DA,Pianka,0.18,0.05,0.39
DA-LF,Pianka,0.29,0.15,0.46
EA-EN,Pianka,0.07,0,0.38
EA-LF,Pianka,0.12,0.016,0.4
EN-LF,Pianka,0.16,0.04,0.4
EA-DA,0DB,0.27,0.13,0.41
EN-DA,0DB,0.27,0.13,0.41
DA-LF,0DB,0.57,0.45,0.68
EA-EN,0DB,0.18,0,0.36
EA-LF,0DB,0.27,0.13,0.41
EN-LF,0DB,0.27,0.13,0.41
EA-DA,1DB,0.26,0.11,0.44
EN-DA,1DB,0.31,0.14,0.47
DA-LF,1DB,0.53,0.41,0.65
EA-EN,1DB,0.16,0,0.4
EA-LF,1DB,0.26,0.11,0.43
EN-LF,1DB,0.3,0.14,0.47
EA-DA,2DB,0.17,0.03,0.42
EN-DA,2DB,0.25,0.07,0.48
DA-LF,2DB,0.43,0.26,0.63
EA-EN,2DB,0.12,0,0.52
EA-LF,2DB,0.16,0.02,0.47
EN-LF,2DB,0.24,0.06,0.53
